"{Milk, Burgers, Buns, Ketchup}"
"{Burgers, Buns, Ketchup, Coals}"
"{Milk, Buns, Beer}"
"{Burgers, Beer, Buns, Coals}"
"{Milk, Ketchup}"
"{Milk, Beer, Burgers, Buns, Ketchup, Coals}"
"{Beer, Burgers, Buns, Ketchup, Coals}"
"{Milk, Buns}"
"{Burgers, Buns, Ketchup}"
"{Beer, Burgers, Ketchup, Coals}"